*ERROR* 	2017/05/11 - 13:36:26: Empty cart - expired session. at line 463 in file override/controllers/front/OrderOpcController.php
*ERROR* 	2017/05/11 - 13:41:56: Empty cart - expired session. at line 463 in file override/controllers/front/OrderOpcController.php
*ERROR* 	2017/05/11 - 13:43:36: Empty cart - expired session. at line 463 in file override/controllers/front/OrderOpcController.php
*ERROR* 	2017/05/11 - 22:35:14: Empty cart - expired session. at line 463 in file override/controllers/front/OrderOpcController.php
*ERROR* 	2017/05/11 - 22:35:14: Empty cart - expired session. at line 463 in file override/controllers/front/OrderOpcController.php
*ERROR* 	2017/05/11 - 22:35:23: Empty cart - expired session. at line 463 in file override/controllers/front/OrderOpcController.php
*ERROR* 	2017/05/11 - 22:40:40: Empty cart - expired session. at line 463 in file override/controllers/front/OrderOpcController.php
*ERROR* 	2017/05/11 - 22:40:40: Empty cart - expired session. at line 463 in file override/controllers/front/OrderOpcController.php
*ERROR* 	2017/05/11 - 22:46:06: Empty cart - expired session. at line 463 in file override/controllers/front/OrderOpcController.php
*ERROR* 	2017/05/11 - 22:46:40: Empty cart - expired session. at line 463 in file override/controllers/front/OrderOpcController.php
